Animation
…
.panel1-mc-sim-data-auto[

```r
set.seed(123)

*rerun(.n = 10, tibble(x = rnorm(1000)))
```
]
 
.panel2-mc-sim-data-auto[

```
## [[1]]
## # A tibble: 1,000 × 1
##          x
##      <dbl>
##  1 -0.560 
##  2 -0.230 
##  3  1.56  
##  4  0.0705
##  5  0.129 
##  6  1.72  
##  7  0.461 
##  8 -1.27  
##  9 -0.687 
## 10 -0.446 
## # … with 990 more rows
## 
## [[2]]
## # A tibble: 1,000 × 1
##          x
##      <dbl>
##  1 -0.996 
##  2 -1.04  
##  3 -0.0180
##  4 -0.132 
##  5 -2.55  
##  6  1.04  
##  7  0.250 
##  8  2.42  
##  9  0.685 
## 10 -0.447 
## # … with 990 more rows
## 
## [[3]]
## # A tibble: 1,000 × 1
##         x
##     <dbl>
##  1 -0.512
##  2  0.237
##  3 -0.542
##  4  1.22 
##  5  0.174
##  6 -0.615
##  7 -1.81 
##  8 -0.644
##  9  2.05 
## 10 -0.561
## # … with 990 more rows
## 
## [[4]]
## # A tibble: 1,000 × 1
##          x
##      <dbl>
##  1 -0.150 
##  2 -0.328 
##  3 -1.45  
##  4 -0.697 
##  5  2.60  
##  6 -0.0374
##  7  0.913 
##  8 -0.185 
##  9  0.610 
## 10 -0.0527
## # … with 990 more rows
## 
## [[5]]
## # A tibble: 1,000 × 1
##         x
##     <dbl>
##  1  0.197
##  2  0.650
##  3  0.671
##  4 -1.28 
##  5 -2.03 
##  6  2.21 
##  7  0.231
##  8  0.376
##  9 -1.19 
## 10  1.13 
## # … with 990 more rows
## 
## [[6]]
## # A tibble: 1,000 × 1
##         x
##     <dbl>
##  1 -0.494
##  2  1.13 
##  3 -1.15 
##  4  1.48 
##  5  0.916
##  6  0.335
##  7  0.575
##  8  0.204
##  9 -0.447
## 10 -0.344
## # … with 990 more rows
## 
## [[7]]
## # A tibble: 1,000 × 1
##          x
##      <dbl>
##  1 -0.699 
##  2  0.996 
##  3 -0.693 
##  4 -0.103 
##  5  0.604 
##  6 -0.608 
##  7  0.0849
##  8  1.58  
##  9 -0.464 
## 10 -1.16  
## # … with 990 more rows
## 
## [[8]]
## # A tibble: 1,000 × 1
##         x
##     <dbl>
##  1 -1.62 
##  2  0.379
##  3  1.90 
##  4  0.602
##  5  1.73 
##  6 -0.147
##  7 -0.273
##  8  1.15 
##  9  0.505
## 10  0.801
## # … with 990 more rows
## 
## [[9]]
## # A tibble: 1,000 × 1
##         x
##     <dbl>
##  1  0.511
##  2  1.81 
##  3 -1.70 
##  4  0.287
##  5 -0.269
##  6 -0.380
##  7 -0.694
##  8 -0.194
##  9  0.937
## 10 -0.822
## # … with 990 more rows
## 
## [[10]]
## # A tibble: 1,000 × 1
##         x
##     <dbl>
##  1  1.93 
##  2 -0.616
##  3 -0.563
##  4 -0.990
##  5  2.73 
##  6 -0.722
##  7  1.33 
##  8 -1.22 
##  9  1.40 
## 10  0.332
## # … with 990 more rows
```
…
.panel1-mc-sim-data-auto[

```r
set.seed(123)

rerun(.n = 10, tibble(x = rnorm(1000))) %>%
* bind_rows(.id = "id")
```
]
 
.panel2-mc-sim-data-auto[

```
## # A tibble: 10,000 × 2
##    id          x
##    <chr>   <dbl>
##  1 1     -0.560 
##  2 1     -0.230 
##  3 1      1.56  
##  4 1      0.0705
##  5 1      0.129 
##  6 1      1.72  
##  7 1      0.461 
##  8 1     -1.27  
##  9 1     -0.687 
## 10 1     -0.446 
## # … with 9,990 more rows
```
…
.panel1-mc-sim-data-auto[

```r
set.seed(123)

rerun(.n = 10, tibble(x = rnorm(1000))) %>%
  bind_rows(.id = "id") %>%
* group_by(id)
```
]
 
.panel2-mc-sim-data-auto[

```
## # A tibble: 10,000 × 2
## # Groups:   id [10]
##    id          x
##    <chr>   <dbl>
##  1 1     -0.560 
##  2 1     -0.230 
##  3 1      1.56  
##  4 1      0.0705
##  5 1      0.129 
##  6 1      1.72  
##  7 1      0.461 
##  8 1     -1.27  
##  9 1     -0.687 
## 10 1     -0.446 
## # … with 9,990 more rows
```
…
```r
set.seed(123)

rerun(.n = 10, tibble(x = rnorm(1000))) %>%
  bind_rows(.id = "id") %>%
  group_by(id) %>%
* mutate(x_bar = cummean(x),
*        n_id = row_number())
```
]
 
.panel2-mc-sim-data-auto[

```
## # A tibble: 10,000 × 4
## # Groups:   id [10]
##    id          x   x_bar  n_id
##    <chr>   <dbl>   <dbl> <int>
##  1 1     -0.560  -0.560      1
##  2 1     -0.230  -0.395      2
##  3 1      1.56    0.256      3
##  4 1      0.0705  0.210      4
##  5 1      0.129   0.194      5
##  6 1      1.72    0.447      6
##  7 1      0.461   0.449      7
##  8 1     -1.27    0.235      8
##  9 1     -0.687   0.132      9
## 10 1     -0.446   0.0746    10
## # … with 9,990 more rows
```
…
---

count: false

.panel1-mc-plot-auto[

```r
*mc_sim
```
]
 
.panel2-mc-plot-auto[

```
## # A tibble: 10,000 × 4
## # Groups:   id [10]
##    id          x   x_bar  n_id
##    <chr>   <dbl>   <dbl> <int>
##  1 1     -0.560  -0.560      1
##  2 1     -0.230  -0.395      2
##  3 1      1.56    0.256      3
##  4 1      0.0705  0.210      4
##  5 1      0.129   0.194      5
##  6 1      1.72    0.447      6
##  7 1      0.461   0.449      7
##  8 1     -1.27    0.235      8
##  9 1     -0.687   0.132      9
## 10 1     -0.446   0.0746    10
## # … with 9,990 more rows
```
…
