Looking at data
…
---

## New variable: `pctpell_cat`

```r
scorecard <- scorecard %>%
  mutate(pctpell_cat = cut_interval(x = pctpell, n = 6)) %>%
  drop_na(pctpell_cat)

scorecard %>%
  select(pctpell, pctpell_cat)
```

```
## # A tibble: 1,728 × 2
##    pctpell pctpell_cat  
##      <dbl> <fct>        
##  1   0.702 (0.667,0.833]
##  2   0.351 (0.333,0.5]  
##  3   0.254 (0.167,0.333]
##  4   0.763 (0.667,0.833]
##  5   0.177 (0.167,0.333]
##  6   0.464 (0.333,0.5]  
##  7   0.146 [0,0.167]    
##  8   0.236 (0.167,0.333]
##  9   0.488 (0.333,0.5]  
## 10   0.706 (0.667,0.833]
## # … with 1,718 more rows
```
…
