Optimizing color spaces
…
---

# Color Brewer

## Qualitative palettes

<img src="index_files/figure-html/unnamed-chunk-29-1.png" width="80%" style="display: block; margin: auto;" />

---

# `gss`

```
## # A tibble: 1,974 × 221
##     year    id wrkstat     wrkslf wrkgvt marital  sibs childs   age educ  degree
##    <dbl> <dbl> <fct>       <fct>  <fct>  <fct>   <dbl>  <dbl> <dbl> <fct> <fct> 
##  1  2012     1 WORKING PA… SOMEO… PRIVA… Never …     1      0    22 4 ye… Bache…
##  2  2012     2 WORKING PA… SOMEO… PRIVA… Never …     2      0    21 12th… HS    
##  3  2012     3 WORKING FU… SOMEO… PRIVA… Married     1      2    42 12th… HS    
##  4  2012     4 <NA>        SOMEO… PRIVA… Married     2      2    49 1 yr… HS    
##  5  2012     5 RETIRED     SOMEO… GOVER… Separa…     0      3    70 4 ye… Bache…
##  6  2012     6 <NA>        SOMEO… PRIVA… Widowed     4      2    50 7 ye… Bache…
##  7  2012     7 KEEPING HO… SOMEO… PRIVA… Married     2      2    35 3 ye… Junio…
##  8  2012     8 KEEPING HO… <NA>   <NA>   Separa…     2      3    24 11th… <HS   
##  9  2012     9 KEEPING HO… <NA>   <NA>   Married     2      2    28 9th … <HS   
## 10  2012    10 WORKING FU… SOMEO… PRIVA… Never …     0      0    28 5 ye… Bache…
## # … with 1,964 more rows, and 210 more variables: sex <fct>, race <fct>,
## #   polviews <fct>, partyid <fct>, mobile16 <fct>, born <fct>, income06 <fct>,
## #   rincom06 <fct>, region <fct>, size <dbl>, vote08_coded <fct>, pres08 <fct>,
## #   natspac <fct>, natenvir <fct>, natheal <fct>, natcity <fct>,
## #   natcrime <fct>, natdrug <fct>, nateduc <fct>, natrace <fct>, natarms <fct>,
## #   nataid <fct>, natfare <fct>, natroad <fct>, natsoc <fct>, natmass <fct>,
## #   natpark <fct>, natchld <fct>, natsci <fct>, natenrgy <fct>, eqwlth <dbl>, …
```
…
