Visualizing text and network data
…
## Tokenize into words

With `tidytext::unnest_tokens()`:

```r
love_actually %>%
  unnest_tokens(
    output = word,    # first argument is output
    input = dialogue, # second argument is input
    token = "words"   # third argument is token, with default "words"
    )
```

```
## # A tibble: 9,899 × 4
##    scene  line speaker word    
##    <dbl> <dbl> <chr>   <chr>   
##  1     1     1 (Man)   whenever
##  2     1     1 (Man)   i       
##  3     1     1 (Man)   get     
##  4     1     1 (Man)   gloomy  
##  5     1     1 (Man)   with    
##  6     1     1 (Man)   the     
##  7     1     1 (Man)   state   
##  8     1     1 (Man)   of      
##  9     1     1 (Man)   the     
## 10     1     1 (Man)   world   
## # … with 9,889 more rows
```
…
## Most common words

.task[
Why do these words appear so commonly in Love Actually?
]

```r
love_actually %>%
  unnest_tokens(word, dialogue) %>%
  count(word, sort = TRUE)
```

```
## # A tibble: 1,770 × 2
##    word      n
##    <chr> <int>
##  1 you     334
##  2 i       300
##  3 the     263
##  4 a       201
##  5 and     199
##  6 to      199
##  7 it      150
##  8 is      124
##  9 of      112
## 10 no      111
## # … with 1,760 more rows
```
…
- In computing, stop words are words which are filtered out before or after processing of natural language data (text)

- They usually refer to most common words in a language, but there is not a single list of stop words used by all natural language processing tools

.pull-left[
English:
.small[

```r
get_stopwords("en")
```

```
## # A tibble: 175 × 2
##    word      lexicon 
##    <chr>     <chr>   
##  1 i         snowball
##  2 me        snowball
##  3 my        snowball
##  4 myself    snowball
##  5 we        snowball
##  6 our       snowball
##  7 ours      snowball
##  8 ourselves snowball
##  9 you       snowball
## 10 your      snowball
## # … with 165 more rows
```
]
]

.pull-right[
Spanish:
.small[

```r
get_stopwords("es")
```

```
## # A tibble: 308 × 2
##    word  lexicon 
##    <chr> <chr>   
##  1 de    snowball
##  2 la    snowball
##  3 que   snowball
##  4 el    snowball
##  5 en    snowball
##  6 y     snowball
##  7 a     snowball
##  8 los   snowball
##  9 del   snowball
## 10 se    snowball
## # … with 298 more rows
```
…
---

## Most common words

```r
love_actually %>%
  unnest_tokens(word, dialogue) %>%
  anti_join(stop_words) %>%
  count(word, sort = TRUE)
```

```
## # A tibble: 1,355 × 2
##    word           n
##    <chr>      <int>
##  1 christmas     49
##  2 yeah          48
##  3 er            45
##  4 love          40
##  5 erm           39
##  6 sir           28
##  7 portuguese    25
##  8 god           23
##  9 bye           21
## 10 time          20
## # … with 1,345 more rows
```

---

## Portuguese?!

```r
love_actually %>%
  filter(str_detect(dialogue, "[Pp]ortuguese"))
```

```
## # A tibble: 25 × 4
##    scene  line speaker dialogue                                                 
##    <dbl> <dbl> <chr>   <chr>                                                    
##  1    32   360 woman   Unfortunately, she cannot speak French, just like you. S…
##  2    33   367 Jamie   (Pidgin Portuguese) Bello. Er, bella. Er, mon-montagno, …
##  3    38   421 Aurelia (Portuguese) Thank you very much but no. If you saw my s…
##  4    38   423 Aurelia (Portuguese)Just don't go eating it all yourself, you're…
##  5    39   426 Aurelia (Portuguese) Nao! Eu peco imensa desculpa. Oh, no. Hold …
##  6    39   430 Aurelia (Portuguese) Fuck - it's cold!                           
##  7    39   432 Aurelia (Portuguese) This stuff better be good.                  
##  8    39   434 Aurelia (Portuguese) I don't want to drown saving some shit my g…
##  9    39   436 Aurelia (Portuguese) What kind of an idiot doesn't do copies?    
## 10    39   438 Aurelia (Portuguese) Try not to disturb the eels.                
## # … with 15 more rows
```
…
---

## Most common words

Without "Portuguese"

```r
love_actually %>%
  unnest_tokens(word, dialogue) %>%
  anti_join(stop_words) %>%
  count(word, sort = TRUE)
```

```
## # A tibble: 1,354 × 2
##    word          n
##    <chr>     <int>
##  1 christmas    49
##  2 yeah         48
##  3 er           45
##  4 love         40
##  5 erm          39
##  6 sir          28
##  7 god          23
##  8 bye          21
##  9 time         20
## 10 ah           19
## # … with 1,344 more rows
```
…
---

## Bigrams as tokens

**Bigram** is a sequence of two adjacent elements ferom a string of tokens, e.g., two consecutive words

```r
bigrams <- love_actually %>%
  unnest_tokens(bigram, dialogue, token = "ngrams", n = 2)

bigrams
```

```
## # A tibble: 8,966 × 4
##    scene  line speaker bigram     
##    <dbl> <dbl> <chr>   <chr>      
##  1     1     1 (Man)   whenever i 
##  2     1     1 (Man)   i get      
##  3     1     1 (Man)   get gloomy 
##  4     1     1 (Man)   gloomy with
##  5     1     1 (Man)   with the   
##  6     1     1 (Man)   the state  
##  7     1     1 (Man)   state of   
##  8     1     1 (Man)   of the     
##  9     1     1 (Man)   the world  
## 10     1     1 (Man)   world i    
## # … with 8,956 more rows
```

---

## Most common bigrams

```r
bigrams %>%
  count(bigram, sort = TRUE)
```

```
## # A tibble: 6,356 × 2
##    bigram        n
##    <chr>     <int>
##  1 <NA>        111
##  2 thank you    32
##  3 do you       25
##  4 this is      25
##  5 come on      24
##  6 you know     24
##  7 and i        21
##  8 in the       21
##  9 are you      20
## 10 i think      20
## # … with 6,346 more rows
```
---

## Removing stop words from bigrams

Step 1: Separate the bigram into words

```r
bigrams_separated <- bigrams %>%
  separate(bigram, c("word1", "word2"), sep = " ")

bigrams_separated
```

```
## # A tibble: 8,966 × 5
##    scene  line speaker word1    word2 
##    <dbl> <dbl> <chr>   <chr>    <chr> 
##  1     1     1 (Man)   whenever i     
##  2     1     1 (Man)   i        get   
##  3     1     1 (Man)   get      gloomy
##  4     1     1 (Man)   gloomy   with  
##  5     1     1 (Man)   with     the   
##  6     1     1 (Man)   the      state 
##  7     1     1 (Man)   state    of    
##  8     1     1 (Man)   of       the   
##  9     1     1 (Man)   the      world 
## 10     1     1 (Man)   world    i     
## # … with 8,956 more rows
```
…
## Removing stop words from bigrams

Step 2: Remove bigram if either word is a stop word

```r
bigrams_filtered <- bigrams_separated %>%
  filter(!(word1 %in% stop_words$word)) %>%
  filter(!(word2 %in% stop_words$word))

bigrams_filtered
```

```
## # A tibble: 930 × 5
##    scene  line speaker word1      word2      
##    <dbl> <dbl> <chr>   <chr>      <chr>      
##  1     1     1 (Man)   arrivals   gate       
##  2     1     1 (Man)   heathrow   airport    
##  3     1     1 (Man)   opinion    started    
##  4     1     1 (Man)   sons       mothers    
##  5     1     1 (Man)   daughters  husbands   
##  6     1     1 (Man)   wives      boyfriends 
##  7     1     1 (Man)   boyfriends girlfriends
##  8     1     1 (Man)   planes     hit        
##  9     1     1 (Man)   twin       towers     
## 10     1     1 (Man)   phone      calls      
## # … with 920 more rows
```
---

## Removing stop words from bigrams

Step 3: Put the bigrams back together

```r
bigrams_united <- bigrams_filtered %>%
  unite(bigram, word1, word2, sep = " ")

bigrams_united
```

```
## # A tibble: 930 × 4
##    scene  line speaker bigram                
##    <dbl> <dbl> <chr>   <chr>                 
##  1     1     1 (Man)   arrivals gate         
##  2     1     1 (Man)   heathrow airport      
##  3     1     1 (Man)   opinion started       
##  4     1     1 (Man)   sons mothers          
##  5     1     1 (Man)   daughters husbands    
##  6     1     1 (Man)   wives boyfriends      
##  7     1     1 (Man)   boyfriends girlfriends
##  8     1     1 (Man)   planes hit            
##  9     1     1 (Man)   twin towers           
## 10     1     1 (Man)   phone calls           
## # … with 920 more rows
```

---

## Most common bigrams, again

Hmm...

```r
bigrams_united %>%
  count(bigram, sort = TRUE)
```

```
## # A tibble: 708 × 2
##    bigram              n
##    <chr>           <int>
##  1 NA NA             111
##  2 prime minister     13
##  3 bye bye            11
##  4 baby baby           6
##  5 merry christmas     6
##  6 uncle jamie         5
##  7 baby bye            4
##  8 billy mack          4
##  9 bye baby            4
## 10 goodbye baby        4
## # … with 698 more rows
```

---

## Most common bigrams, again

```r
bigrams_united <- bigrams_united %>%
  filter(bigram != "NA NA")

bigrams_united %>%
  count(bigram, sort = TRUE)
```

```
## # A tibble: 707 × 2
##    bigram              n
##    <chr>           <int>
##  1 prime minister     13
##  2 bye bye            11
##  3 baby baby           6
##  4 merry christmas     6
##  5 uncle jamie         5
##  6 baby bye            4
##  7 billy mack          4
##  8 bye baby            4
##  9 goodbye baby        4
## 10 joni mitchell       4
## # … with 697 more rows
```
…
---

## Lines-per-scene-per-character

```r
character_scene_counts <- love_actually %>%
    count(scene, character)

character_scene_counts
```

```
## # A tibble: 162 × 3
##    scene character                    n
##    <dbl> <glue>                   <int>
##  1     2 Billy (Bill Nighy)           5
##  2     2 Joe (Gregor Fisher)          3
##  3     3 Jamie (Colin Firth)          5
##  4     4 Daniel (Liam Neeson)         3
##  5     4 Karen (Emma Thompson)        6
##  6     5 Colin (Kris Marshall)        4
##  7     6 Jack (Martin Freeman)        2
##  8     6 Judy (Joanna Page)           1
##  9     7 Mark (Andrew Lincoln)        4
## 10     7 Peter (Chiwetel Ejiofor)     4
## # … with 152 more rows
```
…
<img src="index_files/figure-html/unnamed-chunk-45-1.png" width="60%" style="display: block; margin: auto;" />

---

## Identify monologues

```r
character_scene_counts %>%
  group_by(scene) %>%
  mutate(conversation = if_else(n() == 1, "monologue", "not monologue"))
```

```
## # A tibble: 162 × 4
## # Groups:   scene [76]
##    scene character                    n conversation 
##    <dbl> <glue>                   <int> <chr>        
##  1     2 Billy (Bill Nighy)           5 not monologue
##  2     2 Joe (Gregor Fisher)          3 not monologue
##  3     3 Jamie (Colin Firth)          5 monologue    
##  4     4 Daniel (Liam Neeson)         3 not monologue
##  5     4 Karen (Emma Thompson)        6 not monologue
##  6     5 Colin (Kris Marshall)        4 monologue    
##  7     6 Jack (Martin Freeman)        2 not monologue
##  8     6 Judy (Joanna Page)           1 not monologue
##  9     7 Mark (Andrew Lincoln)        4 not monologue
## 10     7 Peter (Chiwetel Ejiofor)     4 not monologue
## # … with 152 more rows
```
…
