Deep dive: geoms
…
mean_netcost_pctpell
```

```
## # A tibble: 64 × 4
##    pctpell     n mean_netcost sd_netcost
##      <dbl> <int>        <dbl>      <dbl>
##  1    0.03     1       15684         NA 
##  2    0.05     1       43234         NA 
##  3    0.07     2       13170       9528.
##  4    0.09     3       33766.      3630.
##  5    0.1      4       32919       8896.
##  6    0.11    19       31169.      7642.
##  7    0.12     8       26704.      8346.
##  8    0.13    18       32806.      7044.
##  9    0.15    14       25664.      7696.
## 10    0.17    22       28346.     10684.
## # … with 54 more rows
```
…
