Interactive reporting
…
## Data: Ask a manager

Source: Ask a Manager Survey via [TidyTuesday](https://github.com/rfordatascience/tidytuesday/tree/master/data/2021/2021-05-18)

> This data does not reflect the general population; it reflects Ask a Manager readers who self-selected to respond, which is a very different group (as you can see just from the demographic breakdown below, which is very white and very female).

Some findings [here](https://www.askamanager.org/2021/05/some-findings-from-24000-peoples-salaries.html).

```r
manager <- read_csv(here::here("15-interactive-reporting", "data/survey.csv"))
manager
```

```
## # A tibble: 26,232 × 18
##    timestamp   how_old_are_you industry job_title additional_cont… annual_salary
##    <chr>       <chr>           <chr>    <chr>     <chr>                    <dbl>
##  1 4/27/2021 … 25-34           Educati… Research… <NA>                     55000
##  2 4/27/2021 … 25-34           Computi… Change &… <NA>                     54600
##  3 4/27/2021 … 25-34           Account… Marketin… <NA>                     34000
##  4 4/27/2021 … 25-34           Nonprof… Program … <NA>                     62000
##  5 4/27/2021 … 25-34           Account… Accounti… <NA>                     60000
##  6 4/27/2021 … 25-34           Educati… Scholarl… <NA>                     62000
##  7 4/27/2021 … 25-34           Publish… Publishi… <NA>                     33000
##  8 4/27/2021 … 25-34           Educati… Librarian High school, FT          50000
##  9 4/27/2021 … 45-54           Computi… Systems … Data developer/…        112000
## 10 4/27/2021 … 35-44           Account… Senior A… <NA>                     45000
## # … with 26,222 more rows, and 12 more variables: other_monetary_comp <dbl>,
## #   currency <chr>, currency_other <chr>, additional_context_on_income <chr>,
## #   country <chr>, state <chr>, city <chr>,
## #   overall_years_of_professional_experience <chr>,
## #   years_of_experience_in_field <chr>,
## #   highest_level_of_education_completed <chr>, gender <chr>, race <chr>
```
…
