Deep dive: themes + axes + annotation
…
```r
wdi_clean <- wdi_co2_raw %>%
  filter(region != "Aggregates") %>%
  select(iso2c, iso3c, country, year,
    population = SP.POP.TOTL,
    co2_emissions = EN.ATM.CO2E.PC,
    gdp_per_cap = NY.GDP.PCAP.KD,
    region, income
  )

wdi_clean
```

```
## # A tibble: 4,557 × 9
##   iso2c iso3c country  year population co2_emissions gdp_per_cap region   income
##   <chr> <chr> <chr>   <dbl>      <dbl>         <dbl>       <dbl> <chr>    <chr> 
## 1 AD    AND   Andorra  2001      67344          7.72      35975. Europe … High …
## 2 AD    AND   Andorra  1997      64318          7.31      31326. Europe … High …
## 3 AD    AND   Andorra  1998      64140          7.64      32416. Europe … High …
## 4 AD    AND   Andorra  2000      65390          7.95      34268. Europe … High …
## 5 AD    AND   Andorra  2014      79213          5.81      34722. Europe … High …
## 6 AD    AND   Andorra  2002      70048          7.57      36159. Europe … High …
## # … with 4,551 more rows
```
…
